<?xml version="1.0" encoding="utf-8"?>
<!-- Generator: Adobe Illustrator 16.0.0, SVG Export Plug-In . SVG Version: 6.00 Build 0)  -->
<!DOCTYPE svg PUBLIC "-//W3C//DTD SVG 1.1//EN" "http://www.w3.org/Graphics/SVG/1.1/DTD/svg11.dtd">
<svg version="1.1" id="Layer_1" xmlns="http://www.w3.org/2000/svg" xmlns:xlink="http://www.w3.org/1999/xlink" x="0px" y="0px"
	 width="100px" height="100px" viewBox="0 0 100 100" enable-background="new 0 0 100 100" xml:space="preserve">
<g>
	<path fill="none" d="M1061.482,351.769v-31.05c0-3.705-3.129-6.719-6.975-6.719s-6.975,3.014-6.975,6.719v31.05
		c-4.916,2.482-8.023,7.368-8.023,12.787c0,7.966,6.727,14.444,14.998,14.444c8.271,0,14.999-6.479,14.999-14.444
		C1069.507,359.137,1066.398,354.251,1061.482,351.769z M1054.508,375.148c-6.064,0-10.998-4.753-10.998-10.593
		c0-4.295,2.665-8.136,6.791-9.786l1.232-0.492v-33.559c0-1.58,1.334-2.867,2.975-2.867s2.976,1.287,2.976,2.867v33.559l1.233,0.492
		c4.125,1.65,6.79,5.491,6.79,9.786C1065.507,370.396,1060.573,375.148,1054.508,375.148z M-870.771-272.371v-1.4
		c0-0.156-0.128-0.301-0.285-0.301h-1.709c-0.157,0-0.285,0.146-0.285,0.301v1.4c0.28-0.033,0.85-0.053,1.14-0.053
		S-871.052-272.404-870.771-272.371z M-871.341-266.052v-2.065c0-0.156-0.128-0.284-0.285-0.284h-0.57
		c-0.157,0-0.285,0.128-0.285,0.284v2.065c-0.339,0.197-0.569,0.558-0.569,0.977s0.23,0.78,0.569,0.978v0.505
		c0,0.156,0.128,0.295,0.285,0.295h0.57c0.157,0,0.285-0.139,0.285-0.295v-0.505c0.339-0.197,0.57-0.559,0.57-0.978
		S-871.002-265.855-871.341-266.052z M-866.093-271.499c-0.111-0.109-0.292-0.109-0.403,0l-0.844,0.839
		c0.223,0.174,0.438,0.361,0.643,0.564c0.205,0.204,0.393,0.418,0.567,0.638l0.844-0.839c0.111-0.11,0.111-0.291,0-0.401
		L-866.093-271.499z M-871.911-271.313c-3.457,0-6.268,2.799-6.268,6.238s2.812,6.238,6.268,6.238s6.268-2.799,6.268-6.238
		S-868.455-271.313-871.911-271.313z M-871.911-260.539c-2.514,0-4.559-2.035-4.559-4.537s2.045-4.537,4.559-4.537
		c2.513,0,4.559,2.035,4.559,4.537S-869.398-260.539-871.911-260.539z"/>
</g>
<g>
	<g>
		<path fill="#FFFFFF" d="M91.667,22.916h-12.5v-4.164h-8.334c0-6.896-5.609-12.503-12.5-12.503H41.667
			c-6.891,0-12.5,5.607-12.5,12.503h-8.334v4.164h-12.5C3.749,22.916,0,26.667,0,31.249v18.75l14.578,10.417h27.089v-6.17h16.666
			v6.17h27.084L100,49.999v-18.75C100,26.667,96.251,22.916,91.667,22.916z M62.5,22.916h-25v-4.164c0-2.3,1.872-4.169,4.167-4.169
			h16.666c2.295,0,4.167,1.869,4.167,4.169V22.916z M58.333,64.582v4.17H41.667v-4.17H12.758L0,56.248v29.168
			c0,4.58,3.749,8.336,8.333,8.336h83.333c4.584,0,8.333-3.756,8.333-8.336V56.248l-12.5,8.334H58.333z"/>
	</g>
</g>
</svg>
