<?xml version="1.0" encoding="utf-8"?>
<!-- Generator: Adobe Illustrator 16.0.0, SVG Export Plug-In . SVG Version: 6.00 Build 0)  -->
<!DOCTYPE svg PUBLIC "-//W3C//DTD SVG 1.1//EN" "http://www.w3.org/Graphics/SVG/1.1/DTD/svg11.dtd">
<svg version="1.1" id="Layer_1" xmlns="http://www.w3.org/2000/svg" xmlns:xlink="http://www.w3.org/1999/xlink" x="0px" y="0px"
	 width="64px" height="64px" viewBox="0 0 64 64" enable-background="new 0 0 64 64" xml:space="preserve">
<path fill="none" stroke="#FFFFFF" stroke-width="2" stroke-miterlimit="10" d="M56,50c4.19,0,7-2.81,7-7c0-4.189-2.81-9-7-9
	c0-10.475-9.525-18-20-18c-9.271,0-17.348,6.211-19,15c0,0-1.233,0-2,0c-5.238,0-9,4.762-9,10s3.762,9,9,9H56z"/>
<path fill="none" stroke="#FFFFFF" stroke-width="2" stroke-miterlimit="10" d="M29.999,16.752C27.793,15.028,25.017,14,22,14
	c-7.18,0-13,5.82-13,13c0,2.577,0.707,3.979,2,6"/>
<line fill="none" stroke="#FFFFFF" stroke-width="2" stroke-miterlimit="10" x1="6" y1="27" x2="0" y2="27"/>
<line fill="none" stroke="#FFFFFF" stroke-width="2" stroke-miterlimit="10" x1="22" y1="11" x2="22" y2="5"/>
<line fill="none" stroke="#FFFFFF" stroke-width="2" stroke-miterlimit="10" x1="10" y1="15" x2="4" y2="9"/>
</svg>
